jsonFlickrApi({"photos":{"page":1,"pages":13,"perpage":20,"total":"244","photo":[{"id":"19223480455","owner":"97871389@N08","secret":"785c64fa1c","server":"495","farm":1,"title":"Sitting On Top Of The World","ispublic":1,"isfriend":0,"isfamily":0},{"id":"19216946962","owner":"97871389@N08","secret":"d9d7df7380","server":"3947","farm":4,"title":"Waves Over Waves","ispublic":1,"isfriend":0,"isfamily":0},{"id":"19077681356","owner":"97871389@N08","secret":"d7aa4174dd","server":"510","farm":1,"title":"South to Sand Lake 2","ispublic":1,"isfriend":0,"isfamily":0},{"id":"18884343350","owner":"97871389@N08","secret":"cb89bcd939","server":"3899","farm":4,"title":"3 Arch Rocks Sunset","ispublic":1,"isfriend":0,"isfamily":0},{"id":"17205245686","owner":"111347293@N07","secret":"498f1c828b","server":"7619","farm":8,"title":"Sunset on the Beach","ispublic":1,"isfriend":0,"isfamily":0},{"id":"17230638521","owner":"111347293@N07","secret":"f2498160b0","server":"8803","farm":9,"title":"The Enchanting Coastline","ispublic":1,"isfriend":0,"isfamily":0},{"id":"17045017159","owner":"111347293@N07","secret":"f544f73527","server":"7682","farm":8,"title":"The Littered Hill","ispublic":1,"isfriend":0,"isfamily":0},{"id":"17043649160","owner":"111347293@N07","secret":"23d2154d42","server":"7594","farm":8,"title":"The Decorated Rock","ispublic":1,"isfriend":0,"isfamily":0},{"id":"17229472672","owner":"111347293@N07","secret":"6cf64ffdd4","server":"7636","farm":8,"title":"Hide in the Shade","ispublic":1,"isfriend":0,"isfamily":0},{"id":"16398752391","owner":"34068123@N07","secret":"b551c5cd3c","server":"7318","farm":8,"title":"Hugs all around","ispublic":1,"isfriend":0,"isfamily":0},{"id":"15680733531","owner":"34068123@N07","secret":"269af2f111","server":"8552","farm":9,"title":"Specific answer","ispublic":1,"isfriend":0,"isfamily":0},{"id":"15485971210","owner":"34068123@N07","secret":"cec2eba0d9","server":"3943","farm":4,"title":"Like I'm a wicked way of life","ispublic":1,"isfriend":0,"isfamily":0},{"id":"15203394872","owner":"54990415@N08","secret":"1894ee8136","server":"3851","farm":4,"title":"Cape Lookout State Park","ispublic":1,"isfriend":0,"isfamily":0},{"id":"15017199587","owner":"54990415@N08","secret":"b2bcbb39a3","server":"5581","farm":6,"title":"Cape Lookout State Park","ispublic":1,"isfriend":0,"isfamily":0},{"id":"15017203848","owner":"54990415@N08","secret":"6a1401fae0","server":"5563","farm":6,"title":"Cape Lookout State Park","ispublic":1,"isfriend":0,"isfamily":0},{"id":"15200729441","owner":"54990415@N08","secret":"2a67eabef0","server":"5566","farm":6,"title":"Cape Lookout State Park","ispublic":1,"isfriend":0,"isfamily":0},{"id":"15200729331","owner":"54990415@N08","secret":"b62b50385b","server":"3897","farm":4,"title":"Cape Lookout State Park","ispublic":1,"isfriend":0,"isfamily":0},{"id":"15200728741","owner":"54990415@N08","secret":"e6b8baf2e7","server":"3925","farm":4,"title":"Cape Lookout State Park","ispublic":1,"isfriend":0,"isfamily":0},{"id":"15017094410","owner":"54990415@N08","secret":"3135190198","server":"5565","farm":6,"title":"Cape Lookout State Park","ispublic":1,"isfriend":0,"isfamily":0},{"id":"15200728501","owner":"54990415@N08","secret":"9440f71568","server":"3922","farm":4,"title":"Cape Lookout State Park","ispublic":1,"isfriend":0,"isfamily":0}]},"stat":"ok"})